<svg width="81" height="22" viewBox="0 0 81 22" fill="none" xmlns="http://www.w3.org/2000/svg">
<g clip-path="url(#clip0_126_12059)">
<path d="M27.3485 5.87521C27.8011 5.55574 28.3069 5.30283 28.826 5.11647C29.3718 5.00998 29.9175 5.36938 30.024 5.91514C30.0373 5.95508 30.0373 6.00832 30.0373 6.04825C30.064 6.24792 30.0773 6.44759 30.064 6.64725C30.064 9.53577 30.1039 12.4376 30.0506 15.3261C30.1172 17.03 29.4383 18.6805 28.1871 19.8652C27.029 20.8769 25.5115 21.3827 23.9808 21.2762C23.3684 21.3295 22.8227 20.8769 22.7694 20.2646C22.7694 20.198 22.7694 20.1448 22.7694 20.0782C22.7561 19.3195 23.0889 18.9468 23.9142 18.8136C24.3535 18.7471 24.7927 18.7205 25.2187 18.6273C26.5897 18.3211 27.4949 17.0166 27.3219 15.6323C25.8843 16.6306 24.034 16.8702 22.3834 16.2579C21.0656 15.8053 19.9342 14.9135 19.2021 13.7288C17.7644 11.4925 18.0706 8.56406 19.9342 6.66057C21.9708 4.51747 24.5265 4.27787 27.3485 5.87521ZM20.9458 10.6672C20.8926 12.411 22.2769 13.8752 24.0207 13.9285C24.0473 13.9285 24.0606 13.9285 24.0872 13.9285C25.8709 13.9817 27.3751 12.5707 27.4283 10.787C27.4283 10.7737 27.4283 10.7471 27.4283 10.7338C27.4683 8.99002 26.0839 7.53911 24.3402 7.49917C24.2736 7.49917 24.2204 7.49917 24.1538 7.49917C22.4367 7.44593 20.9991 8.80366 20.9458 10.5208C20.9458 10.574 20.9458 10.614 20.9458 10.6672ZM9.83101 15.3661C6.55646 17.1231 4.04066 16.8303 2.00405 14.5008C0.180422 12.5175 0.0206887 9.52247 1.61803 7.35275C3.53483 4.75707 6.17044 4.21132 9.7112 5.75541C9.7112 5.27621 9.69789 4.85025 9.7112 4.4243C9.72452 3.51914 9.71121 2.61398 9.79107 1.70882C9.81769 1.10982 10.3368 0.643928 10.9358 0.67055H10.9491C11.5881 0.630617 12.1471 1.0832 12.2403 1.70882C12.2803 1.93511 12.2803 2.17471 12.2803 2.41431C12.2803 6.47421 12.2803 10.5474 12.2803 14.6073C12.2803 15.2995 12.2803 16.0183 11.4816 16.2845C10.6962 16.5508 10.217 16.0449 9.83101 15.3661ZM9.67127 10.7338C9.73783 9.01664 8.38009 7.56573 6.66295 7.49917C6.58309 7.49917 6.51653 7.49917 6.43666 7.49917C4.66628 7.51248 3.22868 8.9634 3.24199 10.7338C3.2553 12.5042 4.70621 13.9418 6.4766 13.9285C8.23367 13.9151 9.65796 12.4909 9.67127 10.7338ZM51.5748 5.80865C51.7478 5.6223 51.9342 5.44925 52.1471 5.28952C52.653 4.89019 53.3851 4.98336 53.7844 5.48919C53.9442 5.70217 54.0373 5.95508 54.0373 6.2213C54.0773 6.95341 54.0506 7.69884 54.0506 8.43095C54.0506 10.614 54.0506 12.797 54.0373 14.98C54.0373 15.7521 53.7578 16.218 53.1987 16.2978C52.8127 16.3111 52.4267 16.2313 52.0673 16.0582C51.8543 15.9651 51.7212 15.6722 51.4949 15.4193C50.257 16.431 48.633 16.8303 47.0756 16.4975C45.7711 16.2712 44.5864 15.579 43.7345 14.5541C41.9109 12.3844 41.8709 9.24293 43.6413 7.01997C45.5848 4.63727 48.3934 4.19801 51.5748 5.80865ZM48.1937 7.49917C46.4899 7.44593 45.0656 8.79035 45.0124 10.4942C45.0124 10.5607 45.0124 10.6273 45.0124 10.6938C44.9591 12.4376 46.3302 13.8885 48.0606 13.9285C48.1272 13.9285 48.1937 13.9285 48.2603 13.9285C50.0307 13.9285 51.4683 12.4909 51.4816 10.7205C51.4949 8.9634 50.0972 7.52579 48.3268 7.49917C48.2869 7.49917 48.247 7.49917 48.1937 7.49917ZM73.2453 5.8619C73.4051 5.66223 73.5781 5.48919 73.7645 5.32945C74.2969 4.89018 75.0956 4.97005 75.5215 5.51581C75.6679 5.68885 75.7478 5.90183 75.7877 6.11481C75.8277 6.3411 75.841 6.5807 75.8277 6.8203C75.8277 9.40266 75.8277 11.9983 75.8277 14.5807C75.8277 14.7804 75.8277 14.98 75.8011 15.1797C75.7877 15.6988 75.4417 16.1514 74.9358 16.3111C74.4433 16.4709 73.8976 16.2978 73.5781 15.8852C73.4716 15.7521 73.3784 15.6323 73.2453 15.4592C73.0057 15.6057 72.7794 15.7388 72.5398 15.8586C70.5032 17.0033 68.5332 16.777 66.6164 15.579C66.3501 15.406 66.1771 15.1131 66.1372 14.7937C66.43 13.1963 65.5914 11.6123 64.1006 10.9468C63.9009 8.91015 64.8726 6.92679 66.6164 5.83528C68.7595 4.4243 70.9957 4.37105 73.2453 5.8619ZM73.2453 10.7338C73.2453 8.93677 71.7944 7.48586 69.9974 7.48586C68.2536 7.48586 66.816 8.87022 66.7495 10.614C66.7095 12.411 68.1338 13.8885 69.9308 13.9285C71.7278 13.9684 73.2054 12.5441 73.2453 10.7471C73.2453 10.7471 73.2453 10.7471 73.2453 10.7338ZM37.1721 7.81864C35.8942 6.75375 36.0806 5.75541 37.1721 4.98336C37.1721 4.27787 37.1721 3.50582 37.1721 2.73378C37.1588 2.401 37.1721 2.06822 37.2254 1.73544C37.2919 1.17637 37.7445 0.737108 38.3036 0.697174C38.9026 0.617307 39.4616 0.99002 39.6214 1.5624C39.7145 1.9218 39.7545 2.2812 39.7545 2.65391C39.7678 3.42596 39.7545 4.18469 39.7545 4.99667C40.6862 5.18303 41.6047 5.36939 41.5382 6.47421C41.4849 7.40599 40.6996 7.57904 39.8876 7.6589C39.8343 7.88519 39.7944 8.11148 39.7678 8.35108C39.7545 9.802 39.7545 11.2396 39.7678 12.6905C39.7811 13.5691 39.9275 13.7288 40.7794 13.9285C41.7112 14.1414 42.044 14.5141 41.9907 15.2463C41.9375 15.9251 41.4184 16.3378 40.5665 16.3644C38.9691 16.5241 37.5448 15.3927 37.3452 13.7953C37.2254 12.624 37.1854 11.4526 37.1987 10.2812C37.1588 9.42929 37.1721 8.59068 37.1721 7.81864ZM58.8826 8.53744C58.8826 10.5474 58.8826 12.5707 58.8826 14.5807C58.8959 14.8469 58.8826 15.1131 58.856 15.3794C58.7095 16.0449 58.0573 16.4576 57.3917 16.3111C56.9259 16.2047 56.5665 15.8453 56.46 15.3794C56.42 15.1131 56.4067 14.8469 56.42 14.5807C56.42 10.5208 56.42 6.44759 56.42 2.38769C56.42 2.21464 56.4067 2.05491 56.42 1.88187C56.42 1.21631 56.9525 0.683862 57.618 0.683862C57.6313 0.683862 57.6447 0.683862 57.658 0.683862C58.2836 0.643929 58.8293 1.12313 58.8693 1.74875C58.8693 1.78869 58.8693 1.84193 58.8693 1.88187C58.8959 3.42596 58.8826 4.97005 58.8826 6.51414C58.8959 7.19301 58.8826 7.87188 58.8826 8.53744ZM14.1305 10.5474C14.1305 9.33611 14.1305 8.1381 14.1305 6.92679C14.1305 6.68719 14.1305 6.4609 14.1438 6.2213C14.237 5.36939 14.6763 4.91681 15.3818 4.9035C16.0606 4.86356 16.633 5.3827 16.6729 6.06157C16.6729 6.12812 16.6729 6.20799 16.6596 6.27454C16.6862 9.14975 16.6729 12.0383 16.6729 14.9268C16.6729 15.0998 16.6463 15.2596 16.5931 15.4193C16.4733 15.9651 15.9808 16.3511 15.4217 16.3511C14.8626 16.391 14.3568 16.005 14.237 15.4592C14.1571 15.1398 14.1172 14.807 14.1305 14.4742C14.1172 13.1697 14.1305 11.8652 14.1305 10.5474ZM34.6962 10.6938C34.6962 11.9052 34.6962 13.1165 34.6962 14.3145C34.7095 14.6473 34.6696 14.98 34.6164 15.3128C34.5232 15.9384 33.9641 16.391 33.3252 16.3511C32.6729 16.3245 32.2736 15.9384 32.1671 15.193C32.1405 14.8869 32.1272 14.594 32.1405 14.2879C32.1405 11.8386 32.1405 9.38935 32.1405 6.9401C32.1272 6.63395 32.1405 6.3411 32.1804 6.03495C32.247 5.43594 32.7262 4.98336 33.3252 4.94343C33.9242 4.9035 34.4566 5.30283 34.6031 5.87521C34.6829 6.19468 34.7229 6.52746 34.7095 6.87355C34.7095 8.13811 34.6962 9.41598 34.6962 10.6938ZM80.3535 10.7072C80.3535 12.1847 80.3801 13.6622 80.3402 15.1398C80.3268 15.9251 79.9674 16.2978 79.2753 16.3511C78.6496 16.4709 78.0373 16.0449 77.9175 15.4193C77.9175 15.3927 77.9042 15.3527 77.9042 15.3261C77.8643 15.0599 77.8643 14.7937 77.8776 14.5275C77.8776 11.9717 77.8909 9.42929 77.8909 6.87355C77.8776 6.60732 77.8909 6.3411 77.9175 6.07488C78.0107 5.40932 78.5964 4.93012 79.262 4.97005C79.8876 4.99668 80.3801 5.52912 80.3535 6.16806C80.3535 6.18137 80.3535 6.18137 80.3535 6.19468C80.3801 7.69884 80.3668 9.21631 80.3668 10.7205L80.3535 10.7072ZM65.1655 14.0616C65.1921 15.2995 64.2071 16.3378 62.9558 16.3644C62.9292 16.3644 62.9159 16.3644 62.8892 16.3644C61.6114 16.4043 60.5465 15.3927 60.5199 14.1148C60.4799 12.8369 61.4916 11.772 62.7694 11.7454C62.8094 11.7454 62.8626 11.7454 62.9026 11.7454C64.1538 11.7454 65.1655 12.7704 65.1655 14.0216C65.1655 14.0216 65.1655 14.0349 65.1655 14.0616Z" fill="black"/>
<path d="M24.1939 12.8103C23.0891 12.9035 22.1041 12.0782 22.0109 10.9734C21.9976 10.8935 21.9976 10.8003 22.0109 10.7205C21.9709 9.5624 22.8894 8.59069 24.0608 8.55075C24.1007 8.55075 24.1274 8.55075 24.1673 8.55075C25.3387 8.49751 26.337 9.40266 26.3902 10.5874C26.4435 11.7587 25.5383 12.7571 24.3536 12.8103C24.3004 12.8103 24.2472 12.8103 24.1939 12.8103ZM6.41021 8.55075C7.58159 8.51082 8.55331 9.41597 8.60655 10.574C8.60655 10.614 8.60655 10.6406 8.60655 10.6805C8.6598 11.7987 7.80788 12.7571 6.68975 12.8103C6.60988 12.8103 6.53001 12.8103 6.43683 12.8103C5.26545 12.8636 4.26712 11.9451 4.21387 10.7737C4.16063 9.60233 5.0791 8.604 6.25048 8.55075C6.30372 8.55075 6.35697 8.55075 6.41021 8.55075ZM50.3636 10.6938C50.4435 11.7854 49.6182 12.7438 48.5134 12.8103C48.4069 12.8236 48.3004 12.8103 48.1939 12.8103C47.0891 12.8769 46.1307 12.025 46.0641 10.9201C46.0641 10.8669 46.0641 10.8003 46.0641 10.7471C46.0109 9.58902 46.8894 8.61731 48.0475 8.55075C48.1007 8.55075 48.154 8.55075 48.1939 8.55075C49.3254 8.4842 50.2838 9.34942 50.3503 10.4676C50.3636 10.5474 50.3636 10.6273 50.3636 10.6938ZM67.8012 10.6007C67.8545 9.41598 68.8528 8.49751 70.0375 8.55075C70.0508 8.55075 70.0641 8.55075 70.0907 8.55075C71.2621 8.56406 72.2072 9.52247 72.1939 10.6938C72.1939 10.7205 72.1939 10.7604 72.1939 10.787C72.1939 11.9185 71.2621 12.8369 70.1307 12.8369C70.0641 12.8369 69.9976 12.8369 69.9177 12.8236C68.7463 12.8236 67.7879 11.8652 67.8012 10.6805C67.8012 10.6539 67.8012 10.6273 67.8012 10.6007Z" fill="#649A3D"/>
</g>
<defs>
<clipPath id="clip0_126_12059">
<rect width="80" height="20.7654" fill="white" transform="translate(0.5 0.617306)"/>
</clipPath>
</defs>
</svg>
