<svg width="93" height="40" viewBox="0 0 93 40" fill="none" xmlns="http://www.w3.org/2000/svg">
<g clip-path="url(#clip0_207_6162)">
<path fill-rule="evenodd" clip-rule="evenodd" d="M9.95806 8.73193C7.76198 8.73193 6.08877 9.51625 5.19988 10.745V9.17638H0.206421V25.7777H5.19988V16.7319C5.19988 14.379 6.45479 13.3071 8.28485 13.3071C9.87962 13.3071 11.1868 14.2744 11.1868 16.3398V25.8038H16.1803V15.6077C16.1803 11.111 13.3306 8.73193 9.95806 8.73193ZM23.1345 15.7646C23.6051 14.0653 24.86 13.1502 26.7685 13.1502C28.2587 13.1502 29.7489 13.8561 30.2979 15.7646H23.1345ZM26.7947 8.73193C21.5398 8.73193 17.9319 12.5489 17.9319 17.4901C17.9319 22.4313 21.4613 26.2483 27.1345 26.2483C30.2979 26.2483 32.7554 25.0979 34.3764 22.8234L30.3764 20.5228C29.7228 21.2548 28.5463 21.7777 27.1868 21.7777C25.3568 21.7777 23.8404 21.1764 23.1868 19.4509H35.0038C35.1345 18.8234 35.213 18.1698 35.213 17.464C35.2391 12.4705 31.6313 8.73193 26.7947 8.73193ZM57.8535 9.17638H54.8469L52.4417 18.0653L49.8535 9.17638H45.1999L42.6117 18.0653L40.2064 9.17638H34.8992L40.2064 25.7777H44.86L47.5267 16.9149L50.1934 25.7777H54.8469L57.8535 16.3659V9.17638Z" fill="#0F0F0F"/>
<path fill-rule="evenodd" clip-rule="evenodd" d="M34.5855 32.8105V39.9216L30.9515 36.3399V30.4053H38.1672V36.3399L34.5855 32.8105Z" fill="#00AB95"/>
<path fill-rule="evenodd" clip-rule="evenodd" d="M34.5854 39.9217V32.8105L38.1671 36.34L34.5854 39.9217Z" fill="#FDB913"/>
<path fill-rule="evenodd" clip-rule="evenodd" d="M49.7228 31.2939L50.8208 34.039V31.2939H51.579V35.1632H50.5071L49.3829 32.2873V35.1632H48.6247V31.2939H49.7228ZM59.1345 31.2939L59.7881 33.9867L60.4417 31.2939H61.7228V35.1632H60.9384V32.1043L60.128 35.1632H59.3698L58.5855 32.1305V35.1632H57.8012V31.2939H59.1345ZM64.5201 31.2939C64.8339 31.32 65.1215 31.503 65.226 31.7906C65.3568 32.1566 65.3568 32.6795 65.0953 32.9932C64.9646 33.1239 64.7816 33.2024 64.5463 33.2547C64.5986 33.2547 64.677 33.2808 64.7554 33.3069C64.9907 33.3592 65.1476 33.4638 65.226 33.6468C65.3829 34.0128 65.2783 34.4834 65.3568 34.9017L65.409 35.1632H64.5986C64.4679 34.7449 64.6247 34.1435 64.4417 33.7775C64.311 33.5422 63.945 33.5684 63.6835 33.5684V35.1632H62.8992V31.2939C62.8992 31.2939 64.2064 31.2677 64.5201 31.2939ZM63.6835 31.869V32.9671C63.6835 32.9671 64.2064 33.0455 64.4156 32.8102C64.5463 32.6272 64.5201 32.2873 64.4679 32.0782C64.311 31.8167 63.945 31.869 63.6835 31.869ZM42.8208 31.2939L43.8927 35.1632H43.0561L42.8208 34.3004H41.6705L41.4352 35.1632H40.6509L41.7228 31.2939H42.8208ZM42.2456 31.9998L41.8535 33.7252H42.6639L42.2718 32.0782L42.2456 31.9998ZM46.7947 31.3462C47.03 31.3723 47.2914 31.6076 47.3698 31.869C47.4483 32.2089 47.4483 32.6011 47.213 32.8886C47.1084 33.0194 46.9515 33.0717 46.7947 33.1501C46.9254 33.1762 47.03 33.2285 47.1607 33.2808C47.5267 33.5161 47.5528 34.0128 47.5005 34.4311C47.4483 34.7449 47.1345 35.0586 46.847 35.1109C46.7162 35.137 46.5594 35.1632 46.4286 35.1632H44.86V31.2939C45.409 31.2939 46.3502 31.2677 46.7947 31.3462ZM46.1934 32.8625C46.4809 32.8625 46.5594 32.6795 46.6117 32.5488C46.6639 32.3658 46.6378 32.1305 46.4548 31.9736L46.3764 31.9213C46.2718 31.8429 45.8796 31.869 45.6182 31.869V32.8625H46.1934ZM45.6182 33.4638V34.588C45.9319 34.5618 46.2718 34.6664 46.5071 34.4834C46.7162 34.3004 46.6901 33.9605 46.6117 33.7252C46.4548 33.3854 45.9581 33.4638 45.6182 33.4638ZM52.8339 33.4115L53.3568 32.9148L52.86 32.4181L52.3371 32.9148L52.8339 33.4115ZM55.8666 31.2939L56.9384 35.1632H56.1018L55.8666 34.3004H54.7162L54.4809 35.1632H53.6966L54.7685 31.2939H55.8666ZM55.3175 31.9998L54.9254 33.7252H55.7358L55.3437 32.0782C55.3175 32.0782 55.3175 31.9998 55.3175 31.9998ZM68.9123 31.7906C69.1737 32.3658 69.1215 33.1239 69.1215 33.7775C69.1215 34.0913 69.043 34.7187 68.6509 35.0063C68.3894 35.1893 68.0496 35.2416 67.6835 35.2416C67.213 35.2416 66.7424 35.0586 66.5332 34.6141C66.3241 34.1174 66.3764 33.4115 66.3764 32.7841C66.3764 32.3396 66.4286 31.7645 66.8469 31.4507C67.2653 31.1893 67.9711 31.1893 68.4417 31.3723C68.6247 31.4507 68.8077 31.6076 68.9123 31.7906ZM68.2587 32.5488C68.2326 31.7906 67.8666 31.8167 67.7097 31.8167C67.5528 31.8167 67.2652 31.8952 67.2391 32.5488V33.9083C67.2914 34.588 67.4482 34.7187 67.762 34.7187C68.0757 34.7187 68.2587 34.588 68.2587 33.856C68.2587 33.8298 68.2587 32.5488 68.2587 32.5488ZM0.258708 35.2154H0.755441V32.1305H0.258708V35.2154ZM0.206421 31.32H0.781584V30.771H0.206421V31.32ZM3.29139 35.2154V33.0717C3.29139 32.7318 3.18681 32.4703 2.74237 32.4703C2.19335 32.4703 2.11492 32.9671 2.11492 33.3854V35.2154H1.61819V32.7579C1.61819 32.5488 1.61819 32.3396 1.59204 32.1043H2.11492V32.4965H2.14106C2.35021 32.1566 2.55936 32.0259 2.97766 32.0259C3.63126 32.0259 3.81426 32.4181 3.81426 33.0455V35.1893L3.29139 35.2154ZM4.67701 35.2154H5.17374V32.1305H4.67701V35.2154ZM4.62472 31.32H5.19988V30.771H4.62472V31.32ZM6.08877 32.1305V31.5292L6.58551 31.2939V32.1043H7.26524V32.4965H6.58551V34.3788C6.58551 34.588 6.58551 34.8233 7.05609 34.8233C7.08224 34.8233 7.16067 34.8233 7.29139 34.7971V35.1893C7.13453 35.2154 6.95152 35.2416 6.79466 35.2416C6.32407 35.2416 6.11492 35.0586 6.11492 34.6926V32.4965H5.61819V32.1043L6.08877 32.1305ZM7.73583 35.2154H8.23256V32.1305H7.73583V35.2154ZM7.70969 31.32H8.25871V30.771H7.68355L7.70969 31.32ZM9.5659 34.3004C9.5659 34.588 9.72276 34.8756 10.0626 34.8756C10.3764 34.8756 10.7424 34.6926 10.6901 33.6991C10.1933 33.673 9.5659 33.6468 9.5659 34.3004ZM10.6901 34.771C10.5332 35.137 10.2979 35.2677 9.90577 35.2677C9.25217 35.2677 9.06917 34.8494 9.06917 34.2481C9.06917 33.3069 9.9842 33.2808 10.6901 33.2808C10.6901 32.8625 10.7162 32.4181 10.1672 32.4181C9.82734 32.4181 9.64433 32.6533 9.69662 32.9671H9.1476C9.17374 32.2873 9.53975 32.0259 10.1933 32.0259C10.9777 32.0259 11.1868 32.4442 11.1868 32.9671V34.4573C11.1868 34.6926 11.213 34.954 11.2391 35.1893H10.6901V34.771ZM12.2064 32.1305V31.5292L12.7032 31.2939V32.1043H13.3829V32.4965H12.7032V34.3788C12.7032 34.588 12.7032 34.8233 13.1737 34.8233C13.1999 34.8233 13.2783 34.8233 13.409 34.7971V35.1893C13.2522 35.2154 13.0692 35.2416 12.9123 35.2416C12.4417 35.2416 12.2326 35.0586 12.2326 34.6926V32.4965H11.7358V32.1043L12.2064 32.1305ZM15.5528 33.4377C15.5528 32.5488 15.2914 32.4181 14.9254 32.4181C14.6117 32.4181 14.3502 32.5749 14.3502 33.4377H15.5528ZM14.3502 33.8298C14.3502 34.6926 14.5855 34.8756 14.9777 34.8756C15.3175 34.8756 15.5005 34.588 15.5267 34.3004H16.0757C16.0757 34.9801 15.6574 35.2939 15.0038 35.2939C14.3502 35.2939 13.8273 35.0847 13.8273 33.7252C13.8273 32.8102 13.9319 32.0782 15.0038 32.0782C15.8927 32.0782 16.1018 32.5488 16.1018 33.5945V33.856L14.3502 33.8298ZM17.9842 32.4703C17.4352 32.4703 17.3829 32.8886 17.3829 33.7252C17.3829 34.1958 17.3829 34.8756 18.0103 34.8756C18.5855 34.8756 18.5855 34.1697 18.5855 33.5422C18.5594 33.1239 18.5332 32.4703 17.9842 32.4703ZM18.5594 30.7971H19.0561V35.2154H18.5594V34.8494C18.3764 35.137 18.1672 35.2677 17.8535 35.2677C17.3567 35.2677 16.86 35.0586 16.86 33.7252C16.86 32.9671 16.8862 32.0782 17.8796 32.0782C18.1672 32.0782 18.3764 32.2089 18.5594 32.4442H18.5855V30.7971H18.5594ZM22.4548 34.8494C23.0822 34.8494 23.0822 34.1697 23.0822 33.6991C23.0822 32.8625 23.0038 32.4442 22.4809 32.4442C21.9319 32.4442 21.9058 33.0978 21.9058 33.5161C21.8796 34.0128 21.8273 34.8494 22.4548 34.8494ZM21.8796 35.2154H21.3829V30.7971H21.8796V32.4442H21.9058C22.0888 32.2089 22.2979 32.0782 22.5855 32.0782C23.579 32.0782 23.6051 32.9671 23.6051 33.7252C23.6051 35.0847 23.1084 35.2677 22.6117 35.2677C22.2979 35.2677 22.0626 35.137 21.9058 34.8494V35.2154H21.8796ZM25.3306 34.6403L26.0888 32.1305H26.6378L25.226 36.3919H24.7032L25.043 35.2154L23.9973 32.1305H24.5724L25.3306 34.6403Z" fill="#8A8C8E"/>
<path fill-rule="evenodd" clip-rule="evenodd" d="M9.95806 8.73193C7.76198 8.73193 6.08877 9.51625 5.19988 10.745V9.17638H0.206421V25.7777H5.19988V16.7319C5.19988 14.379 6.45479 13.3071 8.28485 13.3071C9.87962 13.3071 11.1868 14.2744 11.1868 16.3398V25.8038H16.1803V15.6077C16.1803 11.111 13.3306 8.73193 9.95806 8.73193ZM23.1345 15.7646C23.6051 14.0653 24.86 13.1502 26.7685 13.1502C28.2587 13.1502 29.7489 13.8561 30.2979 15.7646H23.1345ZM26.7947 8.73193C21.5398 8.73193 17.9319 12.5489 17.9319 17.4901C17.9319 22.4313 21.4613 26.2483 27.1345 26.2483C30.2979 26.2483 32.7554 25.0979 34.3764 22.8234L30.3764 20.5228C29.7228 21.2548 28.5463 21.7777 27.1868 21.7777C25.3568 21.7777 23.8404 21.1764 23.1868 19.4509H35.0038C35.1345 18.8234 35.213 18.1698 35.213 17.464C35.2391 12.4705 31.6313 8.73193 26.7947 8.73193ZM57.8535 9.17638H54.8469L52.4417 18.0653L49.8535 9.17638H45.1999L42.6117 18.0653L40.2064 9.17638H34.8992L40.2064 25.7777H44.86L47.5267 16.9149L50.1934 25.7777H54.8469L57.8535 16.3659V9.17638Z" fill="#171321"/>
<path d="M81.8535 20.6538C78.8208 20.6538 77.3568 18.0394 77.3568 13.1767C77.3568 8.31391 78.8208 5.69953 81.8535 5.69953C84.8862 5.69953 86.3503 8.31391 86.3503 13.1767C86.3503 18.0133 84.8862 20.6538 81.8535 20.6538ZM81.8535 0.0786133C75.3437 0.0786133 71.6051 5.3858 71.6051 13.1505C71.6051 20.9152 75.3437 26.2224 81.8535 26.2224C88.3633 26.2224 92.1019 20.9152 92.1019 13.1505C92.128 5.41195 88.3633 0.0786133 81.8535 0.0786133ZM63.5267 0.601489C62.6117 2.66685 60.8078 3.79103 57.8535 3.79103V9.22894C58.1934 9.22894 58.5333 9.22894 58.847 9.2028C59.3699 9.17665 59.8404 9.12436 60.2587 9.04593C61.5136 8.81064 62.4287 8.34005 63.213 7.52959V25.778H69.0953V0.601489H63.5267Z" fill="#A2A1A6"/>
<path fill-rule="evenodd" clip-rule="evenodd" d="M34.5855 32.8105V39.9216L30.9515 36.3399V30.4053H38.1672V36.3399L34.5855 32.8105Z" fill="#A2A1A6"/>
<path fill-rule="evenodd" clip-rule="evenodd" d="M34.5856 39.9217V32.8105L38.1673 36.34L34.5856 39.9217Z" fill="#D1D0D3"/>
<path fill-rule="evenodd" clip-rule="evenodd" d="M49.7228 31.2944L50.8208 34.0395V31.2944H51.579V35.1636H50.5071L49.3829 32.2878V35.1636H48.6247V31.2944H49.7228ZM59.1345 31.2944L59.7881 33.9872L60.4417 31.2944H61.7228V35.1636H60.9384V32.1048L60.128 35.1636H59.3698L58.5855 32.131V35.1636H57.8012V31.2944H59.1345ZM64.5201 31.2944C64.8339 31.3205 65.1215 31.5035 65.226 31.7911C65.3568 32.1571 65.3568 32.68 65.0953 32.9937C64.9646 33.1244 64.7816 33.2029 64.5463 33.2551C64.5986 33.2551 64.677 33.2813 64.7554 33.3074C64.9907 33.3597 65.1476 33.4643 65.226 33.6473C65.3829 34.0133 65.2783 34.4839 65.3568 34.9022L65.409 35.1636H64.5986C64.4679 34.7453 64.6247 34.144 64.4417 33.778C64.311 33.5427 63.945 33.5689 63.6835 33.5689V35.1636H62.8992V31.2944C62.8992 31.2944 64.2064 31.2682 64.5201 31.2944ZM63.6835 31.8695V32.9676C63.6835 32.9676 64.2064 33.046 64.4156 32.8107C64.5463 32.6277 64.5201 32.2878 64.4679 32.0787C64.311 31.8172 63.945 31.8695 63.6835 31.8695ZM42.8208 31.2944L43.8927 35.1636H43.0561L42.8208 34.3009H41.6705L41.4352 35.1636H40.6509L41.7228 31.2944H42.8208ZM42.2456 32.0002L41.8535 33.7257H42.6639L42.2718 32.0787L42.2456 32.0002ZM46.7947 31.3466C47.03 31.3728 47.2914 31.6081 47.3698 31.8695C47.4483 32.2094 47.4483 32.6016 47.213 32.8891C47.1084 33.0199 46.9515 33.0721 46.7947 33.1506C46.9254 33.1767 47.03 33.229 47.1607 33.2813C47.5267 33.5166 47.5528 34.0133 47.5005 34.4316C47.4483 34.7453 47.1345 35.0591 46.847 35.1114C46.7162 35.1375 46.5594 35.1636 46.4286 35.1636H44.86V31.2944C45.409 31.2944 46.3502 31.2682 46.7947 31.3466ZM46.1934 32.863C46.4809 32.863 46.5594 32.68 46.6117 32.5493C46.6639 32.3663 46.6378 32.131 46.4548 31.9741L46.3764 31.9218C46.2718 31.8434 45.8796 31.8695 45.6182 31.8695V32.863H46.1934ZM45.6182 33.4643V34.5885C45.9319 34.5623 46.2718 34.6669 46.5071 34.4839C46.7162 34.3009 46.6901 33.961 46.6117 33.7257C46.4548 33.3859 45.9581 33.4643 45.6182 33.4643ZM52.8339 33.412L53.3568 32.9153L52.86 32.4185L52.3371 32.9153L52.8339 33.412ZM55.8666 31.2944L56.9384 35.1636H56.1018L55.8666 34.3009H54.7162L54.4809 35.1636H53.6966L54.7685 31.2944H55.8666ZM55.3175 32.0002L54.9254 33.7257H55.7358L55.3437 32.0787C55.3175 32.0787 55.3175 32.0002 55.3175 32.0002ZM68.9123 31.7911C69.1737 32.3663 69.1215 33.1244 69.1215 33.778C69.1215 34.0917 69.043 34.7192 68.6509 35.0068C68.3894 35.1898 68.0496 35.2421 67.6835 35.2421C67.213 35.2421 66.7424 35.0591 66.5332 34.6146C66.3241 34.1179 66.3764 33.412 66.3764 32.7846C66.3764 32.3401 66.4286 31.765 66.8469 31.4512C67.2653 31.1898 67.9711 31.1898 68.4417 31.3728C68.6247 31.4512 68.8077 31.6081 68.9123 31.7911ZM68.2587 32.5493C68.2326 31.7911 67.8666 31.8172 67.7097 31.8172C67.5528 31.8172 67.2652 31.8957 67.2391 32.5493V33.9087C67.2914 34.5885 67.4482 34.7192 67.762 34.7192C68.0757 34.7192 68.2587 34.5885 68.2587 33.8565C68.2587 33.8303 68.2587 32.5493 68.2587 32.5493ZM0.258708 35.2159H0.755441V32.131H0.258708V35.2159ZM0.206421 31.3205H0.781584V30.7715H0.206421V31.3205ZM3.29139 35.2159V33.0721C3.29139 32.7323 3.18681 32.4708 2.74237 32.4708C2.19335 32.4708 2.11492 32.9676 2.11492 33.3859V35.2159H1.61819V32.7584C1.61819 32.5493 1.61819 32.3401 1.59204 32.1048H2.11492V32.497H2.14106C2.35021 32.1571 2.55936 32.0264 2.97766 32.0264C3.63126 32.0264 3.81426 32.4185 3.81426 33.046V35.1898L3.29139 35.2159ZM4.67701 35.2159H5.17374V32.131H4.67701V35.2159ZM4.62472 31.3205H5.19988V30.7715H4.62472V31.3205ZM6.08877 32.131V31.5297L6.58551 31.2944V32.1048H7.26524V32.497H6.58551V34.3793C6.58551 34.5885 6.58551 34.8238 7.05609 34.8238C7.08224 34.8238 7.16067 34.8238 7.29139 34.7976V35.1898C7.13453 35.2159 6.95152 35.2421 6.79466 35.2421C6.32407 35.2421 6.11492 35.0591 6.11492 34.6931V32.497H5.61819V32.1048L6.08877 32.131ZM7.73583 35.2159H8.23256V32.131H7.73583V35.2159ZM7.70969 31.3205H8.25871V30.7715H7.68355L7.70969 31.3205ZM9.5659 34.3009C9.5659 34.5885 9.72276 34.8761 10.0626 34.8761C10.3764 34.8761 10.7424 34.6931 10.6901 33.6996C10.1933 33.6734 9.5659 33.6473 9.5659 34.3009ZM10.6901 34.7715C10.5332 35.1375 10.2979 35.2682 9.90577 35.2682C9.25217 35.2682 9.06917 34.8499 9.06917 34.2486C9.06917 33.3074 9.9842 33.2813 10.6901 33.2813C10.6901 32.863 10.7162 32.4185 10.1672 32.4185C9.82734 32.4185 9.64433 32.6538 9.69662 32.9676H9.1476C9.17374 32.2878 9.53975 32.0264 10.1933 32.0264C10.9777 32.0264 11.1868 32.4447 11.1868 32.9676V34.4578C11.1868 34.6931 11.213 34.9545 11.2391 35.1898H10.6901V34.7715ZM12.2064 32.131V31.5297L12.7032 31.2944V32.1048H13.3829V32.497H12.7032V34.3793C12.7032 34.5885 12.7032 34.8238 13.1737 34.8238C13.1999 34.8238 13.2783 34.8238 13.409 34.7976V35.1898C13.2522 35.2159 13.0692 35.2421 12.9123 35.2421C12.4417 35.2421 12.2326 35.0591 12.2326 34.6931V32.497H11.7358V32.1048L12.2064 32.131ZM15.5528 33.4382C15.5528 32.5493 15.2914 32.4185 14.9254 32.4185C14.6117 32.4185 14.3502 32.5754 14.3502 33.4382H15.5528ZM14.3502 33.8303C14.3502 34.6931 14.5855 34.8761 14.9777 34.8761C15.3175 34.8761 15.5005 34.5885 15.5267 34.3009H16.0757C16.0757 34.9806 15.6574 35.2944 15.0038 35.2944C14.3502 35.2944 13.8273 35.0852 13.8273 33.7257C13.8273 32.8107 13.9319 32.0787 15.0038 32.0787C15.8927 32.0787 16.1018 32.5493 16.1018 33.595V33.8565L14.3502 33.8303ZM17.9842 32.4708C17.4352 32.4708 17.3829 32.8891 17.3829 33.7257C17.3829 34.1963 17.3829 34.8761 18.0103 34.8761C18.5855 34.8761 18.5855 34.1702 18.5855 33.5427C18.5594 33.1244 18.5332 32.4708 17.9842 32.4708ZM18.5594 30.7976H19.0561V35.2159H18.5594V34.8499C18.3764 35.1375 18.1672 35.2682 17.8535 35.2682C17.3567 35.2682 16.86 35.0591 16.86 33.7257C16.86 32.9676 16.8862 32.0787 17.8796 32.0787C18.1672 32.0787 18.3764 32.2094 18.5594 32.4447H18.5855V30.7976H18.5594ZM22.4548 34.8499C23.0822 34.8499 23.0822 34.1702 23.0822 33.6996C23.0822 32.863 23.0038 32.4447 22.4809 32.4447C21.9319 32.4447 21.9058 33.0983 21.9058 33.5166C21.8796 34.0133 21.8273 34.8499 22.4548 34.8499ZM21.8796 35.2159H21.3829V30.7976H21.8796V32.4447H21.9058C22.0888 32.2094 22.2979 32.0787 22.5855 32.0787C23.579 32.0787 23.6051 32.9676 23.6051 33.7257C23.6051 35.0852 23.1084 35.2682 22.6117 35.2682C22.2979 35.2682 22.0626 35.1375 21.9058 34.8499V35.2159H21.8796ZM25.3306 34.6408L26.0888 32.131H26.6378L25.226 36.3924H24.7032L25.043 35.2159L23.9973 32.131H24.5724L25.3306 34.6408Z" fill="#A2A1A6"/>
</g>
<defs>
<clipPath id="clip0_207_6162">
<rect width="92.0261" height="40" fill="white" transform="translate(0.154175)"/>
</clipPath>
</defs>
</svg>
