<svg width="180" height="40" viewBox="0 0 180 40" fill="none" xmlns="http://www.w3.org/2000/svg">
<path d="M13.2274 31.5421C11.1606 30.3339 9.53896 28.7122 8.33069 26.6455C7.12242 24.5787 6.55008 22.3529 6.55008 19.9682C6.55008 17.5199 7.15422 15.2623 8.33069 13.2273C9.53896 11.1606 11.1606 9.53895 13.2274 8.33068C15.2941 7.15421 17.5199 6.55008 19.9364 6.55008V0C16.3434 0 13.0048 0.890305 9.95231 2.67091C6.86805 4.45151 4.45151 6.86805 2.67091 9.95231C0.890303 13.0366 0 16.3752 0 20C0 23.6248 0.890303 26.9316 2.67091 30.0159C4.45151 33.0684 6.86805 35.4849 9.95231 37.2973C13.0048 39.1097 16.3434 40 19.9364 40V33.3227C17.5199 33.3227 15.2941 32.7186 13.2274 31.5421Z" fill="white"/>
<path d="M19.9675 7.63135V32.3054C26.772 32.3054 32.3046 26.7728 32.3046 19.9684C32.2728 13.1639 26.772 7.63135 19.9675 7.63135Z" fill="white"/>
<path d="M52.8463 8.04492C50.9385 8.04492 49.1897 8.58546 47.6635 9.63475L47.2501 8.29929H43.7207V31.161H48.1404V17.1705C48.1404 15.8669 48.5856 14.754 49.5395 13.8319C50.4616 12.9098 51.5745 12.4328 52.8781 12.4328C53.3233 12.4328 53.5458 12.4646 53.6412 12.4646L53.991 12.5282V8.10852L53.7366 8.07672C53.514 8.07672 53.2279 8.04492 52.8463 8.04492Z" fill="white"/>
<path d="M76.0892 12.878C75.0082 11.4154 73.6091 10.2071 71.9557 9.34858C70.3023 8.49007 68.5217 8.04492 66.6139 8.04492C64.5153 8.04492 62.5439 8.58546 60.7633 9.60295C58.9827 10.6522 57.5519 12.0831 56.5026 13.8637C55.4533 15.6443 54.9446 17.6157 54.9446 19.746C54.9446 21.8446 55.4851 23.816 56.5026 25.6284C57.5519 27.409 58.9827 28.8398 60.7633 29.8891C62.5439 30.9384 64.5153 31.4471 66.6139 31.4471C68.5217 31.4471 70.3023 31.002 71.9557 30.1435C73.6091 29.285 75.0082 28.0767 76.0574 26.5823L76.2164 26.3597L72.9732 23.4662L72.7824 23.7524C72.0829 24.7699 71.1926 25.5966 70.1433 26.2007C69.094 26.8048 67.8857 27.091 66.6139 27.091C64.9287 27.091 63.4024 26.5823 62.0988 25.5648C60.8905 24.6427 60.0638 23.4344 59.6187 22.0036H78.0924L78.156 21.7492C78.2832 21.1769 78.3468 20.5091 78.3468 19.7778C78.3468 19.1101 78.315 18.4742 78.2196 17.9018C77.9016 16.0258 77.2021 14.3406 76.0892 12.878ZM62.0988 13.9591C63.4342 12.9098 64.9605 12.3692 66.6457 12.3692C68.3309 12.3692 69.8571 12.9098 71.1926 13.9591C72.4008 14.913 73.2593 16.153 73.6727 17.6157H59.6505C60.0638 16.153 60.8905 14.913 62.0988 13.9591Z" fill="white"/>
<path d="M109.189 9.28498C107.79 8.45827 106.263 8.04492 104.61 8.04492C103.179 8.04492 101.812 8.36288 100.572 8.96702C99.4272 9.50756 98.4733 10.2707 97.6783 11.2564C96.8834 10.3025 95.8977 9.53935 94.7849 8.96702C93.5448 8.36288 92.1775 8.04492 90.7467 8.04492C88.8389 8.04492 87.0901 8.58546 85.5639 9.63475L85.1505 8.29929H81.6211V31.161H86.0408V17.1705C86.0408 15.8669 86.486 14.754 87.4399 13.8319C88.362 12.9098 89.4748 12.4328 90.7785 12.4328C92.1139 12.4328 93.2268 12.878 94.1489 13.8319C95.071 14.754 95.548 15.8669 95.548 17.1705V31.161H99.9677V17.1705C99.9677 15.8669 100.413 14.754 101.367 13.8001C102.289 12.8462 103.402 12.401 104.705 12.401C106.009 12.401 107.122 12.8462 108.076 13.8001C109.03 14.754 109.475 15.8351 109.475 17.1705V31.161H113.831V17.1705C113.831 15.5171 113.418 13.9909 112.591 12.5918C111.701 11.2246 110.588 10.1117 109.189 9.28498Z" fill="white"/>
<path d="M134.278 9.60295C132.497 8.55366 130.526 8.04492 128.427 8.04492C126.329 8.04492 124.357 8.58546 122.577 9.60295C120.796 10.6522 119.365 12.0831 118.316 13.8637C117.267 15.6443 116.758 17.6157 116.758 19.746C116.758 21.8446 117.298 23.816 118.316 25.5966C119.365 27.3772 120.796 28.808 122.577 29.8573C124.357 30.9066 126.329 31.4471 128.459 31.4471C130.557 31.4471 132.529 30.9066 134.309 29.8573C136.09 28.808 137.521 27.3772 138.57 25.5966C139.619 23.816 140.16 21.8446 140.16 19.746C140.16 17.6475 139.619 15.6761 138.57 13.8637C137.489 12.0831 136.058 10.6522 134.278 9.60295ZM128.427 27.0274C127.092 27.0274 125.852 26.7095 124.739 26.0417C123.626 25.4058 122.736 24.4837 122.068 23.3708C121.432 22.258 121.082 21.0179 121.082 19.7142C121.082 18.3788 121.4 17.1387 122.068 16.0258C122.704 14.913 123.626 14.0227 124.739 13.3549C125.852 12.719 127.092 12.3692 128.427 12.3692C129.731 12.3692 130.939 12.6872 132.084 13.3549C133.197 13.9909 134.087 14.913 134.755 16.0258C135.391 17.1387 135.74 18.3788 135.74 19.7142C135.74 21.0179 135.422 22.2262 134.755 23.3708C134.119 24.4837 133.197 25.374 132.084 26.0417C130.939 26.6777 129.731 27.0274 128.427 27.0274Z" fill="white"/>
<path d="M179.269 17.87C178.982 16.0258 178.251 14.3406 177.17 12.878C176.089 11.4154 174.69 10.2071 173.036 9.34858C171.383 8.49007 169.602 8.04492 167.695 8.04492C165.596 8.04492 163.625 8.58546 161.844 9.60295C160.064 10.6522 158.633 12.0831 157.583 13.8637C156.534 15.6443 156.025 17.6157 156.025 19.746C156.025 21.8446 156.566 23.816 157.583 25.6284C158.633 27.409 160.064 28.8398 161.844 29.8891C163.625 30.9384 165.596 31.4471 167.695 31.4471C169.602 31.4471 171.383 31.002 173.036 30.1435C174.69 29.285 176.089 28.0767 177.138 26.5823L177.297 26.3597L174.054 23.4662L173.863 23.7524C173.164 24.7699 172.273 25.5966 171.224 26.2007C170.175 26.8048 168.967 27.091 167.695 27.091C166.009 27.091 164.483 26.5823 163.18 25.5648C161.971 24.6427 161.145 23.4344 160.699 22.0036H179.173L179.237 21.7492C179.364 21.1769 179.428 20.5091 179.428 19.7778C179.396 19.0465 179.364 18.4106 179.269 17.87ZM163.18 13.9591C164.515 12.9098 166.041 12.3692 167.727 12.3692C169.412 12.3692 170.938 12.9098 172.273 13.9591C173.482 14.913 174.34 16.153 174.754 17.6157H160.731C161.145 16.153 161.971 14.913 163.18 13.9591Z" fill="white"/>
<path d="M141.017 8.29907V8.42627V12.687H144.483V22.5121C144.483 25.5328 145.342 27.8539 147.027 29.3483C148.489 30.7156 150.588 31.4469 153.195 31.4469C153.672 31.4469 154.054 31.4469 154.308 31.4151L154.594 31.3833V27.0908L154.245 27.1226C154.022 27.1544 153.736 27.1544 153.323 27.1544C150.334 27.1544 148.871 25.6281 148.871 22.5121V12.7188H154.594V8.45805V8.33087H141.017V8.29907Z" fill="white"/>
<path d="M146.583 6.58169C148.005 6.58169 149.158 5.4286 149.158 4.00618C149.158 2.58376 148.005 1.43066 146.583 1.43066C145.16 1.43066 144.007 2.58376 144.007 4.00618C144.007 5.4286 145.16 6.58169 146.583 6.58169Z" fill="white"/>
</svg>
